…
Table: Table 1: example_blueprint1

The following code executes the rules in this blueprint and stores the data in a new object (`example1`).
```r
example1 <- blue('blueprint_example/example_blueprint1.xlsx')
example1
```

```
 # A tibble: 2,000 × 7
    studid country gender   age final.weight math.score1  wave
     <chr>   <chr>  <dbl> <dbl>        <dbl>       <dbl> <dbl>
 1   06880     GBR      2 15.67     142.6006    544.7188     1
 2   02864     DEU      1 15.42     125.2389    522.1296     1
 3   01916     DEU      2 15.33       8.8975    607.0338     1
 4   04419     GBR      2 15.25      18.5177    553.2871     1
 5   01823     DEU      1 15.92     158.2145    466.5135     1
 6   01650     DEU      1 16.17     172.7704    316.4901     1
 7   06297     GBR      1 15.33     179.7536    373.8199     1
 8   04957     GBR      1 16.00     207.3544    455.2189     1
 9   00393     GBR      2 15.50       9.1159    612.4864     1
 10  04696     DEU      1 15.92       4.1366    576.1100     1
 # ... with 1,990 more rows
```
…
Table: Table 2: example_blueprint2


```
# A tibble: 2,000 × 10
   studid   schid country gender   age final.weight math.score school.size class.size  wave
    <chr>   <chr>   <chr>  <dbl> <dbl>        <dbl>      <dbl>       <dbl>      <dbl> <dbl>
1   06880 0000275     GBR      2 15.67     142.6006   544.7188        1644         28     1
2   02864 0000131     DEU      1 15.42     125.2389   522.1296        1381         18     1
3   01916 0000087     DEU      2 15.33       8.8975   607.0338         400         18     1
4   04419 0000179     GBR      2 15.25      18.5177   553.2871         346         18     1
5   01823 0000083     DEU      1 15.92     158.2145   466.5135        1083         28     1
6   01650 0000075     DEU      1 16.17     172.7704   316.4901         597         28     1
7   06297 0000253     GBR      1 15.33     179.7536   373.8199        1270         28     1
8   04957 0000200     GBR      1 16.00     207.3544   455.2189        1272         28     1
9   00393 0000016     GBR      2 15.50       9.1159   612.4864        1242         23     1
10  04696 0000217     DEU      1 15.92       4.1366   576.1100         648         28     1
# ... with 1,990 more rows
```
…
